Frameshift – scRNA-seq Analysis: Messy Mouse Brain
…
Calculating cluster 5

Calculating cluster 6

Calculating cluster 7

Calculating cluster 8

koala_umap_markers_10_per_cluster <- koala_umap_markers %>%
  group_by(cluster) %>%
  slice_max(n = 10, order_by = avg_log2FC)
koala_umap_markers_10_per_cluster

# A tibble: 90 × 7
# Groups:   cluster [9]
       p_val avg_log2FC pct.1 pct.2 p_val_adj cluster gene    
       <dbl>      <dbl> <dbl> <dbl>     <dbl> <fct>   <chr>   
 1 6.94e- 80       3.90 0.488 0.066 1.21e- 75 0       Bmp6    
 2 2.11e- 46       3.86 0.281 0.03  3.68e- 42 0       Col13a1 
 3 8.78e- 66       3.67 0.406 0.052 1.53e- 61 0       Galnt18 
 4 1.10e-126       3.61 0.73  0.113 1.93e-122 0       Adam23  
 5 2.37e- 48       3.60 0.313 0.04  4.13e- 44 0       Dnase1l3
 6 5.07e- 46       3.56 0.294 0.035 8.83e- 42 0       Srgap1  
 7 6.73e- 42       3.52 0.283 0.039 1.17e- 37 0       Clec4g  
 8 6.99e-172       3.49 0.929 0.186 1.22e-167 0       Stab2   
 9 4.34e- 77       3.40 0.488 0.069 7.57e- 73 0       Rasgrp3 
10 4.35e- 46       3.34 0.322 0.048 7.59e- 42 0       Gm15675 
# ℹ 80 more rows
…
Calculating cluster 5

Calculating cluster 6

Calculating cluster 7

Calculating cluster 8

koala_umap_markers_10_per_cluster <- koala_umap_markers %>%
  group_by(cluster) %>%
  slice_max(n = 10, order_by = avg_log2FC)
koala_umap_markers_10_per_cluster

# A tibble: 90 × 7
# Groups:   cluster [9]
       p_val avg_log2FC pct.1 pct.2 p_val_adj cluster gene    
       <dbl>      <dbl> <dbl> <dbl>     <dbl> <fct>   <chr>   
 1 6.94e- 80       3.90 0.488 0.066 1.21e- 75 0       Bmp6    
 2 2.11e- 46       3.86 0.281 0.03  3.68e- 42 0       Col13a1 
 3 8.78e- 66       3.67 0.406 0.052 1.53e- 61 0       Galnt18 
 4 1.10e-126       3.61 0.73  0.113 1.93e-122 0       Adam23  
 5 2.37e- 48       3.60 0.313 0.04  4.13e- 44 0       Dnase1l3
 6 5.07e- 46       3.56 0.294 0.035 8.83e- 42 0       Srgap1  
 7 6.73e- 42       3.52 0.283 0.039 1.17e- 37 0       Clec4g  
 8 6.99e-172       3.49 0.929 0.186 1.22e-167 0       Stab2   
 9 4.34e- 77       3.40 0.488 0.069 7.57e- 73 0       Rasgrp3 
10 4.35e- 46       3.34 0.322 0.048 7.59e- 42 0       Gm15675 
# ℹ 80 more rows
…
